AnalisisASPC_ANN
…
library(tidyverse)

cancer_rates <- read_csv("Data/cancer-death-rates.csv")
cancer_rates <- cancer_rates %>%
  rename(
    "death_rates" = `Deaths - Neoplasms - Sex: Both - Age: Age-standardized (Rate)`
  )

cancer_rates %>%
  filter(
    str_detect(Entity, "ian")
  )

# A tibble: 30 x 4
   Entity                   Code   Year death_rates
   <chr>                    <chr> <dbl>       <dbl>
 1 Northern Mariana Islands MNP    1990        181.
 2 Northern Mariana Islands MNP    1991        180.
 3 Northern Mariana Islands MNP    1992        179.
 4 Northern Mariana Islands MNP    1993        178.
 5 Northern Mariana Islands MNP    1994        176.
 6 Northern Mariana Islands MNP    1995        176.
 7 Northern Mariana Islands MNP    1996        175.
 8 Northern Mariana Islands MNP    1997        175.
 9 Northern Mariana Islands MNP    1998        175.
10 Northern Mariana Islands MNP    1999        170.
# ... with 20 more rows

asia <- readxl::read_xlsx("Data/AsiaEntity.xlsx")
asia

# A tibble: 48 x 1
   Entity     
   <chr>      
 1 Afghanistan
 2 Armenia    
 3 Bahrain    
 4 Bangladesh 
 5 Bhutan     
 6 Brunei     
 7 Cambodia   
 8 China      
 9 Cyprus     
10 Georgia    
# ... with 38 more rows

length(asia$Entity)

[1] 48

cancer_rates_asia <- asia %>%
  left_join(cancer_rates)
cancer_rates_asia

# A tibble: 1,440 x 4
   Entity      Code   Year death_rates
   <chr>       <chr> <dbl>       <dbl>
 1 Afghanistan AFG    1990        160.
 2 Afghanistan AFG    1991        158.
 3 Afghanistan AFG    1992        157.
 4 Afghanistan AFG    1993        158.
 5 Afghanistan AFG    1994        158.
 6 Afghanistan AFG    1995        158.
 7 Afghanistan AFG    1996        158.
 8 Afghanistan AFG    1997        158.
 9 Afghanistan AFG    1998        158.
10 Afghanistan AFG    1999        159.
# ... with 1,430 more rows
…
library(tidyverse)

cancer_rates <- read_csv("Data/cancer-death-rates.csv")
cancer_rates <- cancer_rates %>%
  rename(
    "death_rates" = `Deaths - Neoplasms - Sex: Both - Age: Age-standardized (Rate)`
  )

cancer_rates %>%
  filter(
    str_detect(Entity, "ian")
  )

# A tibble: 30 x 4
   Entity                   Code   Year death_rates
   <chr>                    <chr> <dbl>       <dbl>
 1 Northern Mariana Islands MNP    1990        181.
 2 Northern Mariana Islands MNP    1991        180.
 3 Northern Mariana Islands MNP    1992        179.
 4 Northern Mariana Islands MNP    1993        178.
 5 Northern Mariana Islands MNP    1994        176.
 6 Northern Mariana Islands MNP    1995        176.
 7 Northern Mariana Islands MNP    1996        175.
 8 Northern Mariana Islands MNP    1997        175.
 9 Northern Mariana Islands MNP    1998        175.
10 Northern Mariana Islands MNP    1999        170.
# ... with 20 more rows

asia <- readxl::read_xlsx("Data/AsiaEntity.xlsx")
asia

# A tibble: 48 x 1
   Entity     
   <chr>      
 1 Afghanistan
 2 Armenia    
 3 Bahrain    
 4 Bangladesh 
 5 Bhutan     
 6 Brunei     
 7 Cambodia   
 8 China      
 9 Cyprus     
10 Georgia    
# ... with 38 more rows

length(asia$Entity)

[1] 48

cancer_rates_asia <- asia %>%
  left_join(cancer_rates)
cancer_rates_asia

# A tibble: 1,440 x 4
   Entity      Code   Year death_rates
   <chr>       <chr> <dbl>       <dbl>
 1 Afghanistan AFG    1990        160.
 2 Afghanistan AFG    1991        158.
 3 Afghanistan AFG    1992        157.
 4 Afghanistan AFG    1993        158.
 5 Afghanistan AFG    1994        158.
 6 Afghanistan AFG    1995        158.
 7 Afghanistan AFG    1996        158.
 8 Afghanistan AFG    1997        158.
 9 Afghanistan AFG    1998        158.
10 Afghanistan AFG    1999        159.
# ... with 1,430 more rows
…
Urutan dari Tingkatannya : Oranye, Kuning, Biru, Pink, Hijau

cluster_result <- readxl::read_excel("Data/cluster_result.xlsx")
cluster_result

# A tibble: 48 x 2
   Entity       cluster
   <chr>          <dbl>
 1 Mongolia           1
 2 Brunei             2
 3 Turkmenistan       5
 4 Bhutan             5
 5 India              5
 6 Kuwait             5
 7 Bangladesh         5
 8 Syria              5
 9 Maldives           5
10 Saudi Arabia       5
# ... with 38 more rows

cancer_rates_asia_2000 <- cancer_rates_asia_2000 %>%
  left_join(cluster_result) %>%
  mutate(
    cluster = as.factor(cluster)
  )
cancer_rates_asia_2000

# A tibble: 960 x 5
   Entity      Code   Year death_rates cluster
   <chr>       <chr> <dbl>       <dbl> <fct>  
 1 Afghanistan AFG    2000        160. 3      
 2 Afghanistan AFG    2001        161. 3      
 3 Afghanistan AFG    2002        160. 3      
 4 Afghanistan AFG    2003        160. 3      
 5 Afghanistan AFG    2004        161. 3      
 6 Afghanistan AFG    2005        160. 3      
 7 Afghanistan AFG    2006        159. 3      
 8 Afghanistan AFG    2007        158. 3      
 9 Afghanistan AFG    2008        158. 3      
10 Afghanistan AFG    2009        157. 3      
# ... with 950 more rows
…
